Analysis of Richard Dafforne’s Journal and Ledger • debkeepr
…
At a basic level, placing the contents of a set of account books into a data base can expedite the exploration of the transactions and relationships between the accounts. Even a modestly sized account book such as Dafforne’s journal has too many accounts and transactions to easily keep in one’s mind. To get a sense of the data, it helps to create a visual overview of the transactions and a summary of the accounts. This vignette uses dplyr to manipulate the data and to prepare it for plotting with ggplot2.

library(debkeepr)
library(dplyr)
library(ggplot2)
# load the data
transactions <- dafforne_transactions
accounts <- dafforne_accounts

Note that deb_lsd objects are not currently fully integrated into dplyr. This means that certain dplyr functions such as summarise(), mutate(), and arrange() do not work with deb_lsd columns. The same is true for plotting with ggplot2. However, you can get around these limitations by converting deb_lsd values to deb_decimal. The following code simplifies the dafforne_transactions data frame and adds a deb_decimal column.

(transactions <- transactions %>% 
   mutate(dec = deb_as_decimal(lsd)) %>% 
   select(id, credit, debit, date, lsd, dec))
#> # A tibble: 177 x 6
#>       id credit debit date                  lsd          dec
#>    <dbl>  <dbl> <dbl> <date>     <lsd[20s:12d]> <l[20s:12d]>
#>  1     1      2     1 1633-01-01    1000:15s:7d  1000.779167
#>  2     2      2     3 1633-01-01     477:10s:0d   477.500000
#>  3     3      2     4 1633-01-01       55:0s:6d    55.025000
#>  4     4      2     5 1633-01-01      240:0s:0d   240.000000
#>  5     5      2     6 1633-01-01      229:0s:0d   229.000000
#>  6     6      2     8 1633-01-01       3:17s:8d     3.883333
#>  7     7      7     2 1633-01-01      150:0s:0d   150.000000
#>  8     8      9    11 1633-01-04      360:0s:0d   360.000000
#>  9     9      1     9 1633-01-04      144:0s:0d   144.000000
#> 10    10      5    10 1633-01-04      120:0s:0d   120.000000
#> # … with 167 more rows
…
The exact values of the transactions are not necessarily easy to follow in these plots with 177 and 354 points respectively, but they give a good sense of the basic distribution of transactions. Only a handful of transactions involved values over £1,000 sterling, and the majority of transactions were for less that £200. The smaller number of transactions over £1,000 make it possible to match up the credit and debit accounts in the plot with both sets of accounts.

The above plots provide a view of the raw data from Dafforne’s journal, but they do little to show an overview of the accounts. What was the total credit or value sent by each account, what was the total debit or value received by each account, and how much value, if any, remained on the account at the closing of the book? These questions can be answered separately with deb_credit(), deb_debit(), and deb_current(), or together with deb_account_summary().

# Summary of accounts
deb_account_summary(transactions)
#> # A tibble: 46 x 4
#>    account_id         credit          debit        current
#>         <dbl> <lsd[20s:12d]> <lsd[20s:12d]> <lsd[20s:12d]>
#>  1          1   1956:10s:11d    2903:13s:0d   -947:-2s:-1d
#>  2          2     2006:3s:9d      150:0s:0d     1856:3s:9d
#>  3          3      570:0s:0d      570:0s:0d        0:0s:0d
#>  4          4       75:0s:8d       75:0s:8d        0:0s:0d
#>  5          5      813:3s:0d      813:3s:0d        0:0s:0d
#>  6          6     568:1s:11d      869:2s:7d    -301:0s:-8d
#>  7          7   2958:18s:10d   2958:18s:10d        0:0s:0d
#>  8          8    1580:10s:0d    1580:10s:0d        0:0s:0d
#>  9          9     1744:1s:4d     1744:1s:4d        0:0s:0d
#> 10         10      606:2s:6d      606:2s:6d        0:0s:0d
#> # … with 36 more rows
…
