Analysis of double-entry bookkeeping — transactions • debkeepr
…
# Credit, debit, and current value of profit and loss account
deb_account(dafforne_transactions, account_id = 23)
#> # A tibble: 3 x 2
#>   relation            lsd
#>   <chr>    <lsd[20s:12d]>
#> 1 credit      1075:8s:11d
#> 2 debit          29:0s:1d
#> 3 current     1046:8s:10d

# Summary of all accounts in Dafforne's ledger
deb_account_summary(dafforne_transactions)
#> # A tibble: 46 x 4
#>    account_id         credit          debit        current
#>         <dbl> <lsd[20s:12d]> <lsd[20s:12d]> <lsd[20s:12d]>
#>  1          1   1956:10s:11d    2903:13s:0d   -947:-2s:-1d
#>  2          2     2006:3s:9d      150:0s:0d     1856:3s:9d
#>  3          3      570:0s:0d      570:0s:0d        0:0s:0d
#>  4          4       75:0s:8d       75:0s:8d        0:0s:0d
#>  5          5      813:3s:0d      813:3s:0d        0:0s:0d
#>  6          6     568:1s:11d      869:2s:7d    -301:0s:-8d
#>  7          7   2958:18s:10d   2958:18s:10d        0:0s:0d
#>  8          8    1580:10s:0d    1580:10s:0d        0:0s:0d
#>  9          9     1744:1s:4d     1744:1s:4d        0:0s:0d
#> 10         10      606:2s:6d      606:2s:6d        0:0s:0d
#> # … with 36 more rows

# Credit of accounts in Dafforne's ledger
deb_credit(dafforne_transactions)
#> # A tibble: 46 x 2
#>    account_id            lsd
#>         <dbl> <lsd[20s:12d]>
#>  1          1   1956:10s:11d
#>  2          2     2006:3s:9d
#>  3          3      570:0s:0d
#>  4          4       75:0s:8d
#>  5          5      813:3s:0d
#>  6          6     568:1s:11d
#>  7          7   2958:18s:10d
#>  8          8    1580:10s:0d
#>  9          9     1744:1s:4d
#> 10         10      606:2s:6d
#> # … with 36 more rows

# Debit of accounts in Dafforne's ledger
deb_debit(dafforne_transactions)
#> # A tibble: 46 x 2
#>    account_id            lsd
#>         <dbl> <lsd[20s:12d]>
#>  1          1    2903:13s:0d
#>  2          2      150:0s:0d
#>  3          3      570:0s:0d
#>  4          4       75:0s:8d
#>  5          5      813:3s:0d
#>  6          6      869:2s:7d
#>  7          7   2958:18s:10d
#>  8          8    1580:10s:0d
#>  9          9     1744:1s:4d
#> 10         10      606:2s:6d
#> # … with 36 more rows

# Current value of accounts in Dafforne's ledger
deb_current(dafforne_transactions)
#> # A tibble: 46 x 2
#>    account_id            lsd
#>         <dbl> <lsd[20s:12d]>
#>  1          1   -947:-2s:-1d
#>  2          2     1856:3s:9d
#>  3          3        0:0s:0d
#>  4          4        0:0s:0d
#>  5          5        0:0s:0d
#>  6          6    -301:0s:-8d
#>  7          7        0:0s:0d
#>  8          8        0:0s:0d
#>  9          9        0:0s:0d
#> 10         10        0:0s:0d
#> # … with 36 more rows
…
